{
    "count": 191,
    "next": "http://showtimes.everyday.in.th/api/v2/theater/?limit=15&offset=15",
    "previous": null,
    "results": [
        {
            "url": "http://showtimes.everyday.in.th/api/v2/theater/10/",
            "group": { "code": "sf", "english": "SF", "thai": "เอสเอฟ", "website": "http://sfcinemacity.com/" },
            "showtimes": "http://showtimes.everyday.in.th/api/v2/theater/10/showtimes/",
            "num_views": 40611,
            "today_screens": 14,
            "min_screens": 3,
            "fav": false,
            "stars": 0,
            "code": "9901",
            "english": "SF Cinema City MBK Center",
            "thai": "เอสเอฟ มาบุญครอง",
            "website": "",
            "location": "",
            "tel": ""
        },
        {
            "url": "http://showtimes.everyday.in.th/api/v2/theater/8/",
            "group": { "code": "sf", "english": "SF", "thai": "เอสเอฟ", "website": "http://sfcinemacity.com/" },
            "showtimes": "http://showtimes.everyday.in.th/api/v2/theater/8/showtimes/",
            "num_views": 31870,
            "today_screens": 18,
            "min_screens": 3,
            "fav": false,
            "stars": 0,
            "code": "9902",
            "english": "SF Cinema City The Mall Bangkapi",
            "thai": "เอสเอฟ เดอะมอลล์ บางกะปิ",
            "website": "",
            "location": "",
            "tel": ""
        },
        {
            "url": "http://showtimes.everyday.in.th/api/v2/theater/11/",
            "group": { "code": "sf", "english": "SF", "thai": "เอสเอฟ", "website": "http://sfcinemacity.com/" },
            "showtimes": "http://showtimes.everyday.in.th/api/v2/theater/11/showtimes/",
            "num_views": 19140,
            "today_screens": 13,
            "min_screens": 6,
            "fav": false,
            "stars": 1,
            "code": "9903",
            "english": "SF Cinema City The Mall Ngamwongwan",
            "thai": "เอสเอฟ เดอะมอลล์ งามวงศ์วาน",
            "website": "",
            "location": "",
            "tel": ""
        },
        {
            "url": "http://showtimes.everyday.in.th/api/v2/theater/7/",
            "group": { "code": "sf", "english": "SF", "thai": "เอสเอฟ", "website": "http://sfcinemacity.com/" },
            "showtimes": "http://showtimes.everyday.in.th/api/v2/theater/7/showtimes/",
            "num_views": 11642,
            "today_screens": 14,
            "min_screens": 3,
            "fav": false,
            "stars": 0,
            "code": "9904",
            "english": "SF Cinema City The Mall Bangkae",
            "thai": "เอสเอฟ เดอะมอลล์ บางแค",
            "website": "",
            "location": "",
            "tel": ""
        },
        {
            "url": "http://showtimes.everyday.in.th/api/v2/theater/139/",
            "group": { "code": "sf", "english": "SF", "thai": "เอสเอฟ", "website": "http://sfcinemacity.com/" },
            "showtimes": "http://showtimes.everyday.in.th/api/v2/theater/139/showtimes/",
            "num_views": 57767,
            "today_screens": 6,
            "min_screens": 3,
            "fav": false,
            "stars": 0,
            "code": "9905",
            "english": "Emprive Cineclub",
            "thai": "เอ็มพริเว่ ซีนิคลับ",
            "website": "http://www.emprivecineclub.com/",
            "location": "5th Fl. Emporium",
            "tel": "02-268-8899"
        },
        {
            "url": "http://showtimes.everyday.in.th/api/v2/theater/2/",
            "group": { "code": "sf", "english": "SF", "thai": "เอสเอฟ", "website": "http://sfcinemacity.com/" },
            "showtimes": "http://showtimes.everyday.in.th/api/v2/theater/2/showtimes/",
            "num_views": 23484,
            "today_screens": 14,
            "min_screens": 3,
            "fav": false,
            "stars": 2,
            "code": "9906",
            "english": "SFX Cinema Central Ladprao",
            "thai": "เอสเอฟเอ็ก เซนทรัล ลาดพร้าว",
            "website": "",
            "location": "",
            "tel": ""
        },
        {
            "url": "http://showtimes.everyday.in.th/api/v2/theater/3/",
            "group": { "code": "sf", "english": "SF", "thai": "เอสเอฟ", "website": "http://sfcinemacity.com/" },
            "showtimes": "http://showtimes.everyday.in.th/api/v2/theater/3/showtimes/",
            "num_views": 35047,
            "today_screens": 12,
            "min_screens": 3,
            "fav": false,
            "stars": 0,
            "code": "9907",
            "english": "SFX Cinema Central Phuket",
            "thai": "เอสเอฟเอ็ก เซนทรัล ภูเก็ต",
            "website": "",
            "location": "",
            "tel": ""
        },
        {
            "url": "http://showtimes.everyday.in.th/api/v2/theater/13/",
            "group": { "code": "sf", "english": "SF", "thai": "เอสเอฟ", "website": "http://sfcinemacity.com/" },
            "showtimes": "http://showtimes.everyday.in.th/api/v2/theater/13/showtimes/",
            "num_views": 5242,
            "today_screens": 10,
            "min_screens": 3,
            "fav": false,
            "stars": 0,
            "code": "9908",
            "english": "SF Cinema City Central Rattanatibeth",
            "thai": "เอสเอฟ เซนทรัล รัตนาธิเบศ",
            "website": "",
            "location": "",
            "tel": ""
        },
        {
            "url": "http://showtimes.everyday.in.th/api/v2/theater/121/",
            "group": { "code": "sf", "english": "SF", "thai": "เอสเอฟ", "website": "http://sfcinemacity.com/" },
            "showtimes": "http://showtimes.everyday.in.th/api/v2/theater/121/showtimes/",
            "num_views": 103805,
            "today_screens": 19,
            "min_screens": 3,
            "fav": false,
            "stars": 3,
            "code": "9909",
            "english": "SF World Cinema Central World",
            "thai": "เอสเอฟเวิร์ล เซนทรัลเวิร์ล",
            "website": "",
            "location": "",
            "tel": ""
        },
        {
            "url": "http://showtimes.everyday.in.th/api/v2/theater/28/",
            "group": { "code": "sf", "english": "SF", "thai": "เอสเอฟ", "website": "http://sfcinemacity.com/" },
            "showtimes": "http://showtimes.everyday.in.th/api/v2/theater/28/showtimes/",
            "num_views": 3671,
            "today_screens": 8,
            "min_screens": 3,
            "fav": false,
            "stars": 0,
            "code": "9910",
            "english": "SF Cinema City Central Pattaya",
            "thai": "เอสเอฟ เซนทรัล พัทยา",
            "website": "",
            "location": "",
            "tel": ""
        },
        {
            "url": "http://showtimes.everyday.in.th/api/v2/theater/12/",
            "group": { "code": "sf", "english": "SF", "thai": "เอสเอฟ", "website": "http://sfcinemacity.com/" },
            "showtimes": "http://showtimes.everyday.in.th/api/v2/theater/12/showtimes/",
            "num_views": 11885,
            "today_screens": 11,
            "min_screens": 3,
            "fav": false,
            "stars": 0,
            "code": "9911",
            "english": "SF Cinema City Central Ramintra",
            "thai": "เอสเอฟ เซนทรัล รามอินทรา",
            "website": "",
            "location": "",
            "tel": ""
        },
        {
            "url": "http://showtimes.everyday.in.th/api/v2/theater/16/",
            "group": { "code": "sf", "english": "SF", "thai": "เอสเอฟ", "website": "http://sfcinemacity.com/" },
            "showtimes": "http://showtimes.everyday.in.th/api/v2/theater/16/showtimes/",
            "num_views": 26238,
            "today_screens": 14,
            "min_screens": 3,
            "fav": false,
            "stars": 0,
            "code": "9912",
            "english": "SF Cinema City The Mall Thapra",
            "thai": "เอสเอฟ เดอะมอลล์ ท่าพระ",
            "website": "",
            "location": "",
            "tel": ""
        },
        {
            "url": "http://showtimes.everyday.in.th/api/v2/theater/21/",
            "group": { "code": "sf", "english": "SF", "thai": "เอสเอฟ", "website": "http://sfcinemacity.com/" },
            "showtimes": "http://showtimes.everyday.in.th/api/v2/theater/21/showtimes/",
            "num_views": 11075,
            "today_screens": 6,
            "min_screens": 3,
            "fav": false,
            "stars": 0,
            "code": "9913",
            "english": "SF Cinema City Jungceylon Patong",
            "thai": "เอสเอฟ จังซีลอน ป่าตอง",
            "website": "http://www.jungceylon.com/",
            "location": "",
            "tel": ""
        },
        {
            "url": "http://showtimes.everyday.in.th/api/v2/theater/5/",
            "group": { "code": "sf", "english": "SF", "thai": "เอสเอฟ", "website": "http://sfcinemacity.com/" },
            "showtimes": "http://showtimes.everyday.in.th/api/v2/theater/5/showtimes/",
            "num_views": 32610,
            "today_screens": 13,
            "min_screens": 3,
            "fav": false,
            "stars": 0,
            "code": "9914",
            "english": "SFX Cinema Central Pattaya Beach",
            "thai": "เอสเอฟเอ็ก เซนทรัล พัทยา",
            "website": "",
            "location": "",
            "tel": ""
        },
        {
            "url": "http://showtimes.everyday.in.th/api/v2/theater/1/",
            "group": { "code": "sf", "english": "SF", "thai": "เอสเอฟ", "website": "http://sfcinemacity.com/" },
            "showtimes": "http://showtimes.everyday.in.th/api/v2/theater/1/showtimes/",
            "num_views": 22966,
            "today_screens": 17,
            "min_screens": 3,
            "fav": false,
            "stars": 0,
            "code": "9915",
            "english": "SFX Cinema Central Chaengwattana",
            "thai": "เอสเอฟเอ็ก เซนทรัล แจ้งวัฒนะ",
            "website": "",
            "location": "",
            "tel": ""
        }
    ]
}
